Calculator binar/Top/dump.vcd
$date
	Fri Sep  8 10:04:22 2023
$end
$version
	Icarus Verilog
$end
$timescale
	1s
$end
$scope module DUT $end
$scope module dut $end
$var wire 8 ! ADDR [7:0] $end
$var wire 1 " RW $end
$var wire 1 # RWTmp $end
$var wire 4 $ aluOp [3:0] $end
$var wire 1 % clk $end
$var wire 1 & clkTx $end
$var wire 1 ' configDiv $end
$var wire 32 ( freqDivInput [31:0] $end
$var wire 8 ) inA [7:0] $end
$var wire 8 * inB [7:0] $end
$var wire 1 + inputKey $end
$var wire 1 , reset $end
$var wire 1 - resetTmp $end
$var wire 1 . validCmd $end
$var wire 1 / st_txdone $end
$var wire 32 0 mem_out [31:0] $end
$var wire 32 1 m4_out [31:0] $end
$var wire 4 2 m3_out [3:0] $end
$var wire 8 3 m2_out [7:0] $end
$var wire 8 4 m1_out [7:0] $end
$var wire 32 5 concat_out [31:0] $end
$var wire 1 6 clkTxOut $end
$var wire 1 7 calcBusy $end
$var wire 1 8 c_txdata $end
$var wire 1 9 c_sample $end
$var wire 1 : c_rwmem $end
$var wire 1 ; c_mode $end
$var wire 1 < c_active $end
$var wire 1 = c_accessmem $end
$var wire 8 > alu_out [7:0] $end
$var wire 4 ? alu_flags [3:0] $end
$var wire 1 @ DoutValid $end
$var wire 1 A DataOut $end
$scope module M1 $end
$var wire 8 B inA [7:0] $end
$var wire 8 C inB [7:0] $end
$var wire 1 - sel $end
$var wire 8 D dout [7:0] $end
$upscope $end
$scope module M2 $end
$var wire 8 E inA [7:0] $end
$var wire 8 F inB [7:0] $end
$var wire 1 - sel $end
$var wire 8 G dout [7:0] $end
$upscope $end
$scope module M3 $end
$var wire 4 H inA [3:0] $end
$var wire 4 I inB [3:0] $end
$var wire 1 - sel $end
$var wire 4 J dout [3:0] $end
$upscope $end
$scope module M4 $end
$var wire 1 ; sel $end
$var wire 32 K inB [31:0] $end
$var wire 32 L inA [31:0] $end
$var wire 32 M dout [31:0] $end
$upscope $end
$scope module alu $end
$var wire 8 N inA [7:0] $end
$var wire 8 O inB [7:0] $end
$var wire 4 P sel_tmp [3:0] $end
$var reg 8 Q dout [7:0] $end
$var reg 4 R flags [3:0] $end
$upscope $end
$scope module con $end
$var wire 1 # RW $end
$var wire 1 S activeOut $end
$var wire 1 % clk $end
$var wire 1 + inputKey $end
$var wire 1 T modeOut $end
$var wire 1 , reset $end
$var wire 1 . validCmd $end
$var wire 1 / txDone $end
$var wire 1 ; mode $end
$var wire 1 < active $end
$var wire 1 8 TxData $end
$var wire 1 9 SampleData $end
$var wire 1 : RWMem $end
$var wire 1 7 Busy $end
$var wire 1 = AccessMem $end
$scope module crwf $end
$var wire 1 # RW $end
$var wire 1 S active $end
$var wire 1 % clk $end
$var wire 1 T mode $end
$var wire 1 , reset $end
$var wire 1 . validCmd $end
$var wire 1 / txDone $end
$var wire 5 U in [4:0] $end
$var reg 1 = AccessMem $end
$var reg 1 7 Busy $end
$var reg 1 : RWMem $end
$var reg 1 9 SampleData $end
$var reg 1 8 TxData $end
$var reg 3 V cs [2:0] $end
$var reg 3 W ns [2:0] $end
$upscope $end
$scope module decInKey $end
$var wire 1 % clk $end
$var wire 1 + inputKey $end
$var wire 1 , reset $end
$var wire 1 . validCmd $end
$var reg 1 < active $end
$var reg 3 X i [2:0] $end
$var reg 5 Y mem [4:0] $end
$var reg 1 ; mode $end
$upscope $end
$upscope $end
$scope module concat $end
$var wire 8 Z a [7:0] $end
$var wire 8 [ b [7:0] $end
$var wire 8 \ c [7:0] $end
$var wire 4 ] d [3:0] $end
$var wire 4 ^ e [3:0] $end
$var wire 32 _ dout [31:0] $end
$upscope $end
$scope module fd $end
$var wire 1 % clk $end
$var wire 1 ' configDiv $end
$var wire 32 ` din [31:0] $end
$var wire 1 < enable $end
$var wire 1 - reset $end
$var reg 1 6 clkOut $end
$var reg 32 a counter [31:0] $end
$var reg 32 b mem [31:0] $end
$upscope $end
$scope module mem $end
$var wire 1 : RW $end
$var wire 8 c addr [7:0] $end
$var wire 1 % clk $end
$var wire 32 d din [31:0] $end
$var wire 1 - reset $end
$var wire 1 = valid $end
$var reg 32 e dout [31:0] $end
$var reg 9 f i [8:0] $end
$upscope $end
$scope module st $end
$var wire 1 % clk $end
$var wire 1 & clkTx $end
$var wire 32 g din [31:0] $end
$var wire 1 - reset $end
$var wire 1 9 sample $end
$var wire 1 8 startTx $end
$var reg 1 A dout $end
$var reg 6 h i [5:0] $end
$var reg 32 i mem [31:0] $end
$var reg 1 @ txBusy $end
$var reg 1 / txDone $end
$upscope $end
$upscope $end
$upscope $end
$scope module DUT $end
$scope module dut $end
$scope module mem $end
$var reg 32 j \mem[4] [31:0] $end
$upscope $end
$upscope $end
$upscope $end
$enddefinitions $end
#0
$dumpvars
b0 j
b0 i
b100000 h
b1xxxx000000000000000000000000 g
b100000000 f
b0 e
b1xxxx000000000000000000000000 d
bx c
b1 b
b0 a
bx `
b1xxxx000000000000000000000000 _
b1 ^
bx ]
b0 \
b0 [
b0 Z
b0 Y
b0 X
b0 W
b0 V
b0 U
0T
0S
b1 R
b0 Q
b0 P
b0 O
b0 N
b1xxxx000000000000000000000000 M
b1xxxx000000000000000000000000 L
b0 K
b0 J
b0 I
bx H
b0 G
b0 F
bx E
b0 D
b0 C
bx B
0A
0@
b1 ?
b0 >
0=
0<
0;
0:
09
08
07
06
b1xxxx000000000000000000000000 5
b0 4
b0 3
b0 2
b1xxxx000000000000000000000000 1
b0 0
0/
0.
1-
1,
0+
bx *
bx )
bx (
x'
0&
0%
bx $
0#
x"
bx !
$end
#5
b0 j
b100000000 f
1%
#10
0%
#13
b1111 >
b1111 Q
b1111 \
b0 ?
b0 R
b0 ^
b111 4
b111 D
b111 N
b111 Z
b1000 3
b1000 G
b1000 O
b1000 [
b11110000100000000111 1
b11110000100000000111 M
b11110000100000000111 g
0-
b11110000100000000111 5
b11110000100000000111 L
b11110000100000000111 _
b11110000100000000111 d
b0 $
b0 H
b0 ]
b1000 *
b1000 E
b111 )
b111 B
1"
1'
b100 (
b100 `
b100 !
b100 c
1+
b10000 U
1.
0,
#15
b100 b
b1 X
b1 Y
1%
#20
0%
#23
0+
#25
b10 X
1%
#30
0%
#33
1+
#35
b11 X
b101 Y
1%
#40
0%
#43
0+
#45
b100 X
1%
#50
0%
#53
1+
#55
b100 W
b0 1
b0 M
b0 g
1#
1T
1;
b11110 U
1S
1<
b101 X
b10101 Y
1%
#60
0%
#65
1=
1:
17
b100 V
1&
16
b1 a
1%
#70
0%
#73
b0 W
b11100 U
0#
0"
#75
0=
0:
07
b1 W
b0 V
b10 a
b11110000100000000111 j
1%
#80
0%
#85
1=
17
b10 W
b1 V
0&
06
b11 a
1%
#90
0%
#95
0=
19
b11 W
b11110000100000000111 1
b11110000100000000111 M
b11110000100000000111 g
b10 V
b0 a
b11110000100000000111 0
b11110000100000000111 K
b11110000100000000111 e
1%
#100
0%
#105
09
18
b0 1
b0 M
b0 g
b11 V
b11110000100000000111 i
b0 0
b0 K
b0 e
1&
16
b1 a
1%
#110
0%
#115
b10 a
1@
1%
#120
0%
#125
0&
06
b11 a
1%
#130
0%
#135
b0 a
1%
#140
0%
#145
b111100001000000001110 i
b11111 h
1&
16
b1 a
1%
#150
0%
#155
b10 a
1%
#160
0%
#165
0&
06
b11 a
1%
#170
0%
#175
b0 a
1%
#180
0%
#185
b1111000010000000011100 i
b11110 h
1&
16
b1 a
1%
#190
0%
#195
b10 a
1%
#200
0%
#205
0&
06
b11 a
1%
#210
0%
#215
b0 a
1%
#220
0%
#225
b11110000100000000111000 i
b11101 h
1&
16
b1 a
1%
#230
0%
#235
b10 a
1%
#240
0%
#245
0&
06
b11 a
1%
#250
0%
#255
b0 a
1%
#260
0%
#265
b111100001000000001110000 i
b11100 h
1&
16
b1 a
1%
#270
0%
#275
b10 a
1%
#280
0%
#285
0&
06
b11 a
1%
#290
0%
#295
b0 a
1%
#300
0%
#305
b1111000010000000011100000 i
b11011 h
1&
16
b1 a
1%
#310
0%
#315
b10 a
1%
#320
0%
#325
0&
06
b11 a
1%
#330
0%
#335
b0 a
1%
#340
0%
#345
b11110000100000000111000000 i
b11010 h
1&
16
b1 a
1%
#350
0%
#355
b10 a
1%
#360
0%
#365
0&
06
b11 a
1%
#370
0%
#375
b0 a
1%
#380
0%
#385
b111100001000000001110000000 i
b11001 h
1&
16
b1 a
1%
#390
0%
#395
b10 a
1%
#400
0%
#405
0&
06
b11 a
1%
#410
0%
#415
b0 a
1%
#420
0%
#425
b1111000010000000011100000000 i
b11000 h
1&
16
b1 a
1%
#430
0%
#435
b10 a
1%
#440
0%
#445
0&
06
b11 a
1%
#450
0%
#455
b0 a
1%
#460
0%
#465
b11110000100000000111000000000 i
b10111 h
1&
16
b1 a
1%
#470
0%
#475
b10 a
1%
#480
0%
#485
0&
06
b11 a
1%
#490
0%
#495
b0 a
1%
#500
0%
#505
b111100001000000001110000000000 i
b10110 h
1&
16
b1 a
1%
#510
0%
#515
b10 a
1%
#520
0%
#525
0&
06
b11 a
1%
#530
0%
#535
b0 a
1%
#540
0%
#545
b1111000010000000011100000000000 i
b10101 h
1&
16
b1 a
1%
#550
0%
#555
b10 a
1%
#560
0%
#565
0&
06
b11 a
1%
#570
0%
#575
b0 a
1%
#580
0%
#585
b11110000100000000111000000000000 i
b10100 h
1&
16
b1 a
1%
#590
0%
#595
b10 a
1%
#600
0%
#605
0&
06
b11 a
1%
#610
0%
#615
b0 a
1%
#620
0%
#625
b11100001000000001110000000000000 i
1A
b10011 h
1&
16
b1 a
1%
#630
0%
#635
b10 a
1%
#640
0%
#645
0&
06
b11 a
1%
#650
0%
#655
b0 a
1%
#660
0%
#665
b11000010000000011100000000000000 i
b10010 h
1&
16
b1 a
1%
#670
0%
#675
b10 a
1%
#680
0%
#685
0&
06
b11 a
1%
#690
0%
#695
b0 a
1%
#700
0%
#705
b10000100000000111000000000000000 i
b10001 h
1&
16
b1 a
1%
#710
0%
#715
b10 a
1%
#720
0%
#725
0&
06
b11 a
1%
#730
0%
#735
b0 a
1%
#740
0%
#745
b1000000001110000000000000000 i
b10000 h
1&
16
b1 a
1%
#750
0%
#755
b10 a
1%
#760
0%
#765
0&
06
b11 a
1%
#770
0%
#775
b0 a
1%
#780
0%
#785
b10000000011100000000000000000 i
0A
b1111 h
1&
16
b1 a
1%
#790
0%
#795
b10 a
1%
#800
0%
#805
0&
06
b11 a
1%
#810
0%
#815
b0 a
1%
#820
0%
#825
b100000000111000000000000000000 i
b1110 h
1&
16
b1 a
1%
#830
0%
#835
b10 a
1%
#840
0%
#845
0&
06
b11 a
1%
#850
0%
#855
b0 a
1%
#860
0%
#865
b1000000001110000000000000000000 i
b1101 h
1&
16
b1 a
1%
#870
0%
#875
b10 a
1%
#880
0%
#885
0&
06
b11 a
1%
#890
0%
#895
b0 a
1%
#900
0%
#905
b10000000011100000000000000000000 i
b1100 h
1&
16
b1 a
1%
#910
0%
#915
b10 a
1%
#920
0%
#925
0&
06
b11 a
1%
#930
0%
#935
b0 a
1%
#940
0%
#945
b111000000000000000000000 i
1A
b1011 h
1&
16
b1 a
1%
#950
0%
#955
b10 a
1%
#960
0%
#965
0&
06
b11 a
1%
#970
0%
#975
b0 a
1%
#980
0%
#985
b1110000000000000000000000 i
0A
b1010 h
1&
16
b1 a
1%
#990
0%
#995
b10 a
1%
#1000
0%
#1005
0&
06
b11 a
1%
#1010
0%
#1015
b0 a
1%
#1020
0%
#1025
b11100000000000000000000000 i
b1001 h
1&
16
b1 a
1%
#1030
0%
#1035
b10 a
1%
#1040
0%
#1045
0&
06
b11 a
1%
#1050
0%
#1055
b0 a
1%
#1060
0%
#1065
b111000000000000000000000000 i
b1000 h
1&
16
b1 a
1%
#1070
0%
#1075
b10 a
1%
#1080
0%
#1085
0&
06
b11 a
1%
#1090
0%
#1095
b0 a
1%
#1100
0%
#1105
b1110000000000000000000000000 i
b111 h
1&
16
b1 a
1%
#1110
0%
#1115
b10 a
1%
#1120
0%
#1125
0&
06
b11 a
1%
#1130
0%
#1135
b0 a
1%
#1140
0%
#1145
b11100000000000000000000000000 i
b110 h
1&
16
b1 a
1%
#1150
0%
#1155
b10 a
1%
#1160
0%
#1165
0&
06
b11 a
1%
#1170
0%
#1175
b0 a
1%
#1180
0%
#1185
b111000000000000000000000000000 i
b101 h
1&
16
b1 a
1%
#1190
0%
#1195
b10 a
1%
#1200
0%
#1205
0&
06
b11 a
1%
#1210
0%
#1215
b0 a
1%
#1220
0%
#1225
b1110000000000000000000000000000 i
b100 h
1&
16
b1 a
1%
#1230
0%
#1235
b10 a
1%
#1240
0%
#1245
0&
06
b11 a
1%
#1250
0%
#1255
b0 a
1%
#1260
0%
#1265
b11100000000000000000000000000000 i
b11 h
1&
16
b1 a
1%
#1270
0%
#1275
b10 a
1%
#1280
0%
#1285
0&
06
b11 a
1%
#1290
0%
#1295
b0 a
1%
#1300
0%
#1305
b11000000000000000000000000000000 i
1A
b10 h
1&
16
b1 a
1%
#1310
0%
#1315
b10 a
1%
#1320
0%
#1325
0&
06
b11 a
1%
#1330
0%
#1335
b0 a
1%
#1340
0%
#1345
b10000000000000000000000000000000 i
b1 h
1&
16
b1 a
1%
#1350
0%
#1355
b10 a
1%
#1360
0%
#1365
0&
06
b11 a
1%
#1370
0%
#1375
b0 a
1%
#1380
0%
#1385
b0 i
b0 h
1&
16
b1 a
1%
#1390
0%
#1395
b0 W
b10 a
0A
b11101 U
1/
1%
#1400
0%
#1405
08
07
b1 W
b0 V
b11101 U
1/
0&
06
b11 a
1%
#1410
0%
#1415
1=
17
b1 V
b0 a
1%
#1420
0%
#1425
0@
b11110000100000000111 1
b11110000100000000111 M
b11110000100000000111 g
b11110000100000000111 0
b11110000100000000111 K
b11110000100000000111 e
1&
16
b1 a
1%
#1430
0%
#1435
b10 a
1%
#1440
0%
#1445
0&
06
b11 a
1%
#1450
0%
#1455
b0 a
1%
#1460
0%
#1465
1&
16
b1 a
1%
#1470
0%
#1475
b10 a
1%
#1480
0%
#1485
0&
06
b11 a
1%
#1490
0%
#1495
b0 a
1%
#1500
0%
#1505
1&
16
b1 a
1%
#1510
0%
#1515
b10 a
1%
#1520
0%
#1525
0&
06
b11 a
1%
#1530
0%
#1535
b0 a
1%
#1540
0%
#1545
1&
16
b1 a
1%
#1550
0%
#1555
b10 a
1%
#1560
0%
#1565
0&
06
b11 a
1%
#1570
0%
#1575
b0 a
1%
#1580
0%
#1585
1&
16
b1 a
1%
#1590
0%
#1595
b10 a
1%
#1600
0%
#1605
0&
06
b11 a
1%
#1610
0%
#1615
b0 a
1%
#1620
0%
#1625
1&
16
b1 a
1%
#1630
0%
#1635
b10 a
1%
#1640
0%
#1645
0&
06
b11 a
1%
#1650
0%
#1655
b0 a
1%
#1660
0%
#1665
1&
16
b1 a
1%
#1670
0%
#1675
b10 a
1%
#1680
0%
#1685
0&
06
b11 a
1%
#1690
0%
#1695
b0 a
1%
#1700
0%
#1705
1&
16
b1 a
1%
#1710
0%
#1715
b10 a
1%
#1720
0%
#1725
0&
06
b11 a
1%
#1730
0%
#1735
b0 a
1%
#1740
0%
#1745
1&
16
b1 a
1%
#1750
0%
#1755
b10 a
1%
#1760
0%
#1765
0&
06
b11 a
1%
#1770
0%
#1775
b0 a
1%
#1780
0%
#1785
1&
16
b1 a
1%
#1790
0%
#1795
b10 a
1%
#1800
0%
#1805
0&
06
b11 a
1%
#1810
0%
#1815
b0 a
1%
#1820
0%
#1825
1&
16
b1 a
1%
#1830
0%
#1835
b10 a
1%
#1840
0%
#1845
0&
06
b11 a
1%
#1850
0%
#1855
b0 a
1%
#1860
0%
#1865
1&
16
b1 a
1%
#1870
0%
#1875
b10 a
1%
#1880
0%
#1885
0&
06
b11 a
1%
#1890
0%
#1895
b0 a
1%
#1900
0%
#1905
1&
16
b1 a
1%
#1910
0%
#1915
b10 a
1%
#1920
0%
#1925
0&
06
b11 a
1%
#1930
0%
#1935
b0 a
1%
#1940
0%
#1945
1&
16
b1 a
1%
#1950
0%
#1955
b10 a
1%
#1960
0%
#1965
0&
06
b11 a
1%
#1970
0%
#1975
b0 a
1%
#1980
0%
#1985
1&
16
b1 a
1%
#1990
0%
#1995
b10 a
1%
#2000
0%
#2005
0&
06
b11 a
1%
#2010
0%
#2015
b0 a
1%
#2020
0%
#2025
1&
16
b1 a
1%
#2030
0%
#2035
b10 a
1%
#2040
0%
#2045
0&
06
b11 a
1%
#2050
0%
#2055
b0 a
1%
#2060
0%
#2065
1&
16
b1 a
1%
#2070
0%
#2075
b10 a
1%
#2080
0%
#2085
0&
06
b11 a
1%
#2090
0%
#2095
b0 a
1%
#2100
0%
#2105
1&
16
b1 a
1%
#2110
0%
#2115
b10 a
1%
#2120
0%
#2125
0&
06
b11 a
1%
#2130
0%
#2135
b0 a
1%
#2140
0%
#2145
1&
16
b1 a
1%
#2150
0%
#2155
b10 a
1%
#2160
0%
#2165
0&
06
b11 a
1%
#2170
0%
#2175
b0 a
1%
#2180
0%
#2185
1&
16
b1 a
1%
#2190
0%
#2195
b10 a
1%
#2200
0%
#2205
0&
06
b11 a
1%
#2210
0%
#2215
b0 a
1%
#2220
0%
#2225
1&
16
b1 a
1%
#2230
0%
#2235
b10 a
1%
#2240
0%
#2245
0&
06
b11 a
1%
#2250
0%
#2255
b0 a
1%
#2260
0%
#2265
1&
16
b1 a
1%
#2270
0%
#2275
b10 a
1%
#2280
0%
#2285
0&
06
b11 a
1%
#2290
0%
#2295
b0 a
1%
#2300
0%
#2305
1&
16
b1 a
1%
#2310
0%
#2315
b10 a
1%
#2320
0%
#2325
0&
06
b11 a
1%
#2330
0%
#2335
b0 a
1%
#2340
0%
#2345
1&
16
b1 a
1%
#2350
0%
#2355
b10 a
1%
#2360
0%
#2365
0&
06
b11 a
1%
#2370
0%
#2375
b0 a
1%
#2380
0%
#2385
1&
16
b1 a
1%
#2390
0%
#2395
b10 a
1%
#2400
0%
#2405
0&
06
b11 a
1%
#2410
0%
#2415
b0 a
1%
#2420
0%
#2425
1&
16
b1 a
1%
#2430
0%
#2435
b10 a
1%
#2440
0%
#2445
0&
06
b11 a
1%
#2450
0%
#2455
b0 a
1%
#2460
0%
#2465
1&
16
b1 a
1%
#2470
0%
#2475
b10 a
1%
#2480
0%
#2485
0&
06
b11 a
1%
#2490
0%
#2495
b0 a
1%
#2500
0%
#2505
1&
16
b1 a
1%
#2510
0%
#2515
b10 a
1%
#2520
0%
#2525
0&
06
b11 a
1%
#2530
0%
#2535
b0 a
1%
#2540
0%
#2545
1&
16
b1 a
1%
#2550
0%
#2555
b10 a
1%
#2560
0%
#2565
0&
06
b11 a
1%
#2570
0%
#2575
b0 a
1%
#2580
0%
#2585
1&
16
b1 a
1%
#2590
0%
#2595
b10 a
1%
#2600
0%
#2605
0&
06
b11 a
1%
#2610
0%
#2615
b0 a
1%
#2620
0%
#2625
1&
16
b1 a
1%
#2630
0%
#2635
b10 a
1%
#2640
0%
#2645
0&
06
b11 a
1%
#2650
0%
#2655
b0 a
1%
#2660
0%
#2665
1&
16
b1 a
1%
#2670
0%
#2675
b10 a
1%
#2680
0%
#2685
0&
06
b11 a
1%
#2690
0%
#2695
b0 a
1%
#2700
0%
#2705
1&
16
b1 a
1%
#2710
0%
#2715
b10 a
1%
#2720
0%
#2725
0&
06
b11 a
1%
#2730
0%
#2735
b0 a
1%
#2740
0%
#2745
1&
16
b1 a
1%
#2750
0%
#2755
b10 a
1%
#2760
0%
#2765
0&
06
b11 a
1%
#2770
0%
#2775
b0 a
1%
#2780
0%
#2785
1&
16
b1 a
1%
#2790
0%
#2795
b10 a
1%
#2800
0%
#2805
0&
06
b11 a
1%
#2810
0%
#2815
b0 a
1%
#2820
0%
#2825
1&
16
b1 a
1%
#2830
0%
#2835
b10 a
1%
#2840
0%
#2845
0&
06
b11 a
1%
#2850
0%
#2855
b0 a
1%
#2860
0%
#2865
1&
16
b1 a
1%
#2870
0%
#2875
b10 a
1%
#2880
0%
#2885
0&
06
b11 a
1%
#2890
0%
#2895
b0 a
1%
#2900
0%
#2905
1&
16
b1 a
1%
#2910
0%
#2915
b10 a
1%
#2920
0%
#2925
0&
06
b11 a
1%
#2930
0%
#2935
b0 a
1%
#2940
0%
#2945
1&
16
b1 a
1%
#2950
0%
#2955
b10 a
1%
#2960
0%
#2965
0&
06
b11 a
1%
#2970
0%
#2975
b0 a
1%
#2980
0%
#2985
1&
16
b1 a
1%
#2990
0%
#2995
b10 a
1%
#3000
0%
#3005
0&
06
b11 a
1%
#3010
0%
#3015
b0 a
1%
#3020
0%
#3025
1&
16
b1 a
1%
#3030
0%
#3035
b10 a
1%
#3040
0%
#3045
0&
06
b11 a
1%
#3050
0%
#3055
b0 a
1%
#3060
0%
#3065
1&
16
b1 a
1%
